DATA 624: Homework 1
…
Exercise 2.5

# Formatting quarter: 1998-01-01 => 1998 Q1
tourism_xl <- readxl::read_excel("../data/tourism.xlsx") |>
  mutate(Quarter= yearquarter(Quarter)) |> 
  as_tsibble(index=Quarter, key=c(Region, State, Purpose))

tourism_xl %>% group_by(Region, Purpose) %>%
  summarise(trips=mean(Trips)) %>%
  filter(trips==max(trips))

## # A tsibble: 76 x 4 [1Q]
## # Key:       Region, Purpose [76]
## # Groups:    Region [76]
##    Region                     Purpose  Quarter trips
##    <chr>                      <chr>      <qtr> <dbl>
##  1 Adelaide                   Visiting 2017 Q1 270. 
##  2 Adelaide Hills             Visiting 2002 Q4  81.1
##  3 Alice Springs              Holiday  1998 Q3  76.5
##  4 Australia's Coral Coast    Holiday  2014 Q3 198. 
##  5 Australia's Golden Outback Business 2017 Q3 174. 
##  6 Australia's North West     Business 2016 Q3 297. 
##  7 Australia's South West     Holiday  2016 Q1 612. 
##  8 Ballarat                   Visiting 2004 Q1 103. 
##  9 Barkly                     Holiday  1998 Q3  37.9
## 10 Barossa                    Holiday  2006 Q1  51.0
## #  66 more rows
…
